{
  "users": [
    {
      "id": 1,
      "first_name": "Fred",
      "last_name": "Flintstone",
      "email": "fredflintstone@gmail.com"
    },
    {
      "id": 2,
      "first_name": "Wilma",
      "last_name": "Flintstone",
      "email": "wilma@gmail.com"
    },
    {
      "id": 3,
      "first_name": "Barney",
      "last_name": "Rubble",
      "email": "barney@gmail.com"
    },
    {
      "id": 4,
      "first_name": "Pebbles",
      "last_name": "Flintstone",
      "email": "pebbles@gmail.com"
    },
    {
      "id": 9,
      "first_name": "Pebbles",
      "last_name": "Flintstone",
      "email": "pebbles@gmail.com"
    }
  ]
}