[
    {
      "_id": "1001",
      "first_name": "Fred",
      "last_name": "Flintstone",
      "email": "fred@gmail.com"
    },
    {
      "_id": "1002",
      "first_name": "Wilma",
      "last_name": "Flintstone",
      "email": "wilma@gmail.com"
    },
    {
      "_id": "1003",
      "first_name": "Barney",
      "last_name": "Rubble",
      "email": "barney@gmail.com"
    }
]  